<svg xmlns="http://www.w3.org/2000/svg" width="14" height="14.03" viewBox="0 0 14 14.03">
  <metadata><?xpacket begin="﻿" id="W5M0MpCehiHzreSzNTczkc9d"?>
<x:xmpmeta xmlns:x="adobe:ns:meta/" x:xmptk="Adobe XMP Core 5.6-c138 79.159824, 2016/09/14-01:09:01        ">
   <rdf:RDF xmlns:rdf="http://www.w3.org/1999/02/22-rdf-syntax-ns#">
      <rdf:Description rdf:about=""/>
   </rdf:RDF>
</x:xmpmeta>
                                                                                                    
                                                                                                    
                                                                                                    
                                                                                                    
                                                                                                    
                                                                                                    
                                                                                                    
                                                                                                    
                                                                                                    
                                                                                                    
                                                                                                    
                                                                                                    
                                                                                                    
                                                                                                    
                                                                                                    
                                                                                                    
                                                                                                    
                                                                                                    
                                                                                                    
                                                                                                    
                           
<?xpacket end="w"?></metadata>
<defs>
    <style>
      .cls-1 {
        fill: #6a7388;
        fill-rule: evenodd;
      }
    </style>
  </defs>
  <path id="Forma_1" data-name="Forma 1" class="cls-1" d="M1153.68,1218.07l-2.16-2.17a1.123,1.123,0,0,0-1.59.03l-1.09,1.09a1.569,1.569,0,0,1-.21-0.12,10.568,10.568,0,0,1-2.62-1.9,10.876,10.876,0,0,1-1.9-2.64,2.116,2.116,0,0,1-.11-0.21l0.73-.73,0.36-.36a1.144,1.144,0,0,0,.02-1.6l-2.16-2.17a1.123,1.123,0,0,0-1.59.03l-0.61.62,0.02,0.01a3.858,3.858,0,0,0-.5.89,3.473,3.473,0,0,0-.22.9c-0.29,2.38.79,4.55,3.73,7.5,4.05,4.08,7.32,3.77,7.46,3.75a3.588,3.588,0,0,0,.9-0.22,3.789,3.789,0,0,0,.88-0.5l0.02,0.01,0.62-.61A1.144,1.144,0,0,0,1153.68,1218.07Z" transform="translate(-1140 -1206.97)"/>
</svg>
